aes_18xx_43xx.c:73:6:Chip_AES_Init	0	static
aes_18xx_43xx.c:98:10:Chip_AES_SetMode	0	static
aes_18xx_43xx.c:104:6:Chip_AES_LoadKey	0	static
aes_18xx_43xx.c:115:6:Chip_AES_LoadKeyRNG	0	static
aes_18xx_43xx.c:121:6:Chip_AES_LoadKeySW	0	static
aes_18xx_43xx.c:127:6:Chip_AES_LoadIV_SW	0	static
aes_18xx_43xx.c:133:6:Chip_AES_LoadIV_IC	0	static
aes_18xx_43xx.c:139:10:Chip_AES_Operate	0	static
aes_18xx_43xx.c:145:10:Chip_AES_ProgramKey	0	static
aes_18xx_43xx.c:159:10:Chip_AES_Config_DMA	0	static
aes_18xx_43xx.c:165:10:Chip_AES_OperateDMA	4	static
aes_18xx_43xx.c:171:10:Chip_AES_GetStatusDMA	0	static
