timer_18xx_43xx.c:72:6:Chip_TIMER_Init	0	static
timer_18xx_43xx.c:78:6:Chip_TIMER_DeInit	0	static
timer_18xx_43xx.c:84:6:Chip_TIMER_Reset	0	static
timer_18xx_43xx.c:104:6:Chip_TIMER_ExtMatchControlSet	20	static
