^C:\LOCAL_OPELLAXD\PROJECT\WIN32\RISCV\GDBSERVER\DEBUG\X64\GDBASHLOAD.OBJ|C:\LOCAL_OPELLAXD\PROJECT\WIN32\RISCV\GDBSERVER\DEBUG\X64\GDBASHLOADUTILS.OBJ|C:\LOCAL_OPELLAXD\PROJECT\WIN32\RISCV\GDBSERVER\DEBUG\X64\GDBCFG.OBJ|C:\LOCAL_OPELLAXD\PROJECT\WIN32\RISCV\GDBSERVER\DEBUG\X64\GDBDSP.OBJ|C:\LOCAL_OPELLAXD\PROJECT\WIN32\RISCV\GDBSERVER\DEBUG\X64\GDBFILES.OBJ|C:\LOCAL_OPELLAXD\PROJECT\WIN32\RISCV\GDBSERVER\DEBUG\X64\GDBFLASHPROG.OBJ|C:\LOCAL_OPELLAXD\PROJECT\WIN32\RISCV\GDBSERVER\DEBUG\X64\GDBJCON.OBJ|C:\LOCAL_OPELLAXD\PROJECT\WIN32\RISCV\GDBSERVER\DEBUG\X64\GDBMAIN.OBJ|C:\LOCAL_OPELLAXD\PROJECT\WIN32\RISCV\GDBSERVER\DEBUG\X64\GDBMONITOR.OBJ|C:\LOCAL_OPELLAXD\PROJECT\WIN32\RISCV\GDBSERVER\DEBUG\X64\GDBOPT.OBJ|C:\LOCAL_OPELLAXD\PROJECT\WIN32\RISCV\GDBSERVER\DEBUG\X64\GDBOPTRISCV.OBJ|C:\LOCAL_OPELLAXD\PROJECT\WIN32\RISCV\GDBSERVER\DEBUG\X64\GDBRISCV.OBJ|C:\LOCAL_OPELLAXD\PROJECT\WIN32\RISCV\GDBSERVER\DEBUG\X64\GDBRISCVJCMD.OBJ|C:\LOCAL_OPELLAXD\PROJECT\WIN32\RISCV\GDBSERVER\DEBUG\X64\GDBRISCVJUTL.OBJ|C:\LOCAL_OPELLAXD\PROJECT\WIN32\RISCV\GDBSERVER\DEBUG\X64\GDBSERV.OBJ|C:\LOCAL_OPELLAXD\PROJECT\WIN32\RISCV\GDBSERVER\DEBUG\X64\GDBUTIL.OBJ|C:\LOCAL_OPELLAXD\PROJECT\WIN32\RISCV\GDBSERVER\DEBUG\X64\GDBXML.OBJ|C:\LOCAL_OPELLAXD\PROJECT\WIN32\RISCV\GDBSERVER\DEBUG\X64\GDBXMLCFGRISCV.OBJ
C:\LOCAL_OPELLAXD\PROJECT\WIN32\RISCV\GDBSERVER\DEBUG\X64\ASH-RISCV-GDB-SERVER.ILK
C:\LOCAL_OPELLAXD\PROJECT\WIN32\RISCV\GDBSERVER\DEBUG\X64\ASH-RISCV-GDB-SERVER.EXE
C:\LOCAL_OPELLAXD\PROJECT\WIN32\RISCV\GDBSERVER\DEBUG\X64\ASH-RISCV-GDB-SERVER.PDB
