^C:\LOCAL_OPELLAXD\GDBSERVER\ARC\GDBARC.C|C:\LOCAL_OPELLAXD\GDBSERVER\ARC\GDBOPTARC.C|C:\LOCAL_OPELLAXD\GDBSERVER\ARC\GDBXMLCFGARC.C|C:\LOCAL_OPELLAXD\GDBSERVER\ARC\GDBXMLCFGSCARC.C|C:\LOCAL_OPELLAXD\GDBSERVER\FLASHPROG\GDBFILES.C|C:\LOCAL_OPELLAXD\GDBSERVER\FLASHPROG\GDBFLASHPROG.C|C:\LOCAL_OPELLAXD\GDBSERVER\GDBCFG.C|C:\LOCAL_OPELLAXD\GDBSERVER\GDBDSP.C|C:\LOCAL_OPELLAXD\GDBSERVER\GDBMAIN.C|C:\LOCAL_OPELLAXD\GDBSERVER\GDBOPT.C|C:\LOCAL_OPELLAXD\GDBSERVER\GDBSERV.C|C:\LOCAL_OPELLAXD\GDBSERVER\GDBUTIL.C|C:\LOCAL_OPELLAXD\GDBSERVER\GDBXML.C|C:\LOCAL_OPELLAXD\GDBSERVER\JTAGCON\GDBARCJCMD.C|C:\LOCAL_OPELLAXD\GDBSERVER\JTAGCON\GDBARCJUTL.C|C:\LOCAL_OPELLAXD\GDBSERVER\JTAGCON\GDBJCON.C|C:\LOCAL_OPELLAXD\GDBSERVER\MONCOMMAND\ASHLOAD\GDBASHLOAD.C|C:\LOCAL_OPELLAXD\GDBSERVER\MONCOMMAND\ASHLOAD\GDBASHLOADUTILS.C|C:\LOCAL_OPELLAXD\GDBSERVER\MONCOMMAND\GDBMONITOR.C
C:\LOCAL_OPELLAXD\PROJECT\WIN32\ARC\GDBSERVER\RELEASE\X64\VC142.PDB
C:\LOCAL_OPELLAXD\PROJECT\WIN32\ARC\GDBSERVER\RELEASE\X64\GDBMONITOR.OBJ
C:\LOCAL_OPELLAXD\PROJECT\WIN32\ARC\GDBSERVER\RELEASE\X64\GDBASHLOADUTILS.OBJ
C:\LOCAL_OPELLAXD\PROJECT\WIN32\ARC\GDBSERVER\RELEASE\X64\GDBASHLOAD.OBJ
C:\LOCAL_OPELLAXD\PROJECT\WIN32\ARC\GDBSERVER\RELEASE\X64\GDBJCON.OBJ
C:\LOCAL_OPELLAXD\PROJECT\WIN32\ARC\GDBSERVER\RELEASE\X64\GDBARCJUTL.OBJ
C:\LOCAL_OPELLAXD\PROJECT\WIN32\ARC\GDBSERVER\RELEASE\X64\GDBARCJCMD.OBJ
C:\LOCAL_OPELLAXD\PROJECT\WIN32\ARC\GDBSERVER\RELEASE\X64\GDBXML.OBJ
C:\LOCAL_OPELLAXD\PROJECT\WIN32\ARC\GDBSERVER\RELEASE\X64\GDBUTIL.OBJ
C:\LOCAL_OPELLAXD\PROJECT\WIN32\ARC\GDBSERVER\RELEASE\X64\GDBSERV.OBJ
C:\LOCAL_OPELLAXD\PROJECT\WIN32\ARC\GDBSERVER\RELEASE\X64\GDBOPT.OBJ
C:\LOCAL_OPELLAXD\PROJECT\WIN32\ARC\GDBSERVER\RELEASE\X64\GDBMAIN.OBJ
C:\LOCAL_OPELLAXD\PROJECT\WIN32\ARC\GDBSERVER\RELEASE\X64\GDBDSP.OBJ
C:\LOCAL_OPELLAXD\PROJECT\WIN32\ARC\GDBSERVER\RELEASE\X64\GDBCFG.OBJ
C:\LOCAL_OPELLAXD\PROJECT\WIN32\ARC\GDBSERVER\RELEASE\X64\GDBFLASHPROG.OBJ
C:\LOCAL_OPELLAXD\PROJECT\WIN32\ARC\GDBSERVER\RELEASE\X64\GDBFILES.OBJ
C:\LOCAL_OPELLAXD\PROJECT\WIN32\ARC\GDBSERVER\RELEASE\X64\GDBXMLCFGSCARC.OBJ
C:\LOCAL_OPELLAXD\PROJECT\WIN32\ARC\GDBSERVER\RELEASE\X64\GDBXMLCFGARC.OBJ
C:\LOCAL_OPELLAXD\PROJECT\WIN32\ARC\GDBSERVER\RELEASE\X64\GDBOPTARC.OBJ
C:\LOCAL_OPELLAXD\PROJECT\WIN32\ARC\GDBSERVER\RELEASE\X64\GDBARC.OBJ
^C:\LOCAL_OPELLAXD\GDBSERVER\ARC\GDBARC.C
C:\LOCAL_OPELLAXD\PROJECT\WIN32\ARC\GDBSERVER\RELEASE\X64\VC142.PDB
^C:\LOCAL_OPELLAXD\GDBSERVER\ARC\GDBOPTARC.C
C:\LOCAL_OPELLAXD\PROJECT\WIN32\ARC\GDBSERVER\RELEASE\X64\VC142.PDB
^C:\LOCAL_OPELLAXD\GDBSERVER\ARC\GDBXMLCFGARC.C
C:\LOCAL_OPELLAXD\PROJECT\WIN32\ARC\GDBSERVER\RELEASE\X64\VC142.PDB
^C:\LOCAL_OPELLAXD\GDBSERVER\ARC\GDBXMLCFGSCARC.C
C:\LOCAL_OPELLAXD\PROJECT\WIN32\ARC\GDBSERVER\RELEASE\X64\VC142.PDB
^C:\LOCAL_OPELLAXD\GDBSERVER\FLASHPROG\GDBFILES.C
C:\LOCAL_OPELLAXD\PROJECT\WIN32\ARC\GDBSERVER\RELEASE\X64\VC142.PDB
^C:\LOCAL_OPELLAXD\GDBSERVER\FLASHPROG\GDBFLASHPROG.C
C:\LOCAL_OPELLAXD\PROJECT\WIN32\ARC\GDBSERVER\RELEASE\X64\VC142.PDB
^C:\LOCAL_OPELLAXD\GDBSERVER\GDBCFG.C
C:\LOCAL_OPELLAXD\PROJECT\WIN32\ARC\GDBSERVER\RELEASE\X64\VC142.PDB
^C:\LOCAL_OPELLAXD\GDBSERVER\GDBDSP.C
C:\LOCAL_OPELLAXD\PROJECT\WIN32\ARC\GDBSERVER\RELEASE\X64\VC142.PDB
^C:\LOCAL_OPELLAXD\GDBSERVER\GDBMAIN.C
C:\LOCAL_OPELLAXD\PROJECT\WIN32\ARC\GDBSERVER\RELEASE\X64\VC142.PDB
^C:\LOCAL_OPELLAXD\GDBSERVER\GDBOPT.C
C:\LOCAL_OPELLAXD\PROJECT\WIN32\ARC\GDBSERVER\RELEASE\X64\VC142.PDB
^C:\LOCAL_OPELLAXD\GDBSERVER\GDBSERV.C
C:\LOCAL_OPELLAXD\PROJECT\WIN32\ARC\GDBSERVER\RELEASE\X64\VC142.PDB
^C:\LOCAL_OPELLAXD\GDBSERVER\GDBUTIL.C
C:\LOCAL_OPELLAXD\PROJECT\WIN32\ARC\GDBSERVER\RELEASE\X64\VC142.PDB
^C:\LOCAL_OPELLAXD\GDBSERVER\GDBXML.C
C:\LOCAL_OPELLAXD\PROJECT\WIN32\ARC\GDBSERVER\RELEASE\X64\VC142.PDB
^C:\LOCAL_OPELLAXD\GDBSERVER\JTAGCON\GDBARCJCMD.C
C:\LOCAL_OPELLAXD\PROJECT\WIN32\ARC\GDBSERVER\RELEASE\X64\VC142.PDB
^C:\LOCAL_OPELLAXD\GDBSERVER\JTAGCON\GDBARCJUTL.C
C:\LOCAL_OPELLAXD\PROJECT\WIN32\ARC\GDBSERVER\RELEASE\X64\VC142.PDB
^C:\LOCAL_OPELLAXD\GDBSERVER\JTAGCON\GDBJCON.C
C:\LOCAL_OPELLAXD\PROJECT\WIN32\ARC\GDBSERVER\RELEASE\X64\VC142.PDB
^C:\LOCAL_OPELLAXD\GDBSERVER\MONCOMMAND\ASHLOAD\GDBASHLOAD.C
C:\LOCAL_OPELLAXD\PROJECT\WIN32\ARC\GDBSERVER\RELEASE\X64\VC142.PDB
^C:\LOCAL_OPELLAXD\GDBSERVER\MONCOMMAND\ASHLOAD\GDBASHLOADUTILS.C
C:\LOCAL_OPELLAXD\PROJECT\WIN32\ARC\GDBSERVER\RELEASE\X64\VC142.PDB
^C:\LOCAL_OPELLAXD\GDBSERVER\MONCOMMAND\GDBMONITOR.C
C:\LOCAL_OPELLAXD\PROJECT\WIN32\ARC\GDBSERVER\RELEASE\X64\VC142.PDB
