^C:\LOCAL_OPELLAXD\PROJECT\WIN32\ARC\GDBSERVER\RELEASE\X64\GDBARC.OBJ|C:\LOCAL_OPELLAXD\PROJECT\WIN32\ARC\GDBSERVER\RELEASE\X64\GDBARCJCMD.OBJ|C:\LOCAL_OPELLAXD\PROJECT\WIN32\ARC\GDBSERVER\RELEASE\X64\GDBARCJUTL.OBJ|C:\LOCAL_OPELLAXD\PROJECT\WIN32\ARC\GDBSERVER\RELEASE\X64\GDBASHLOAD.OBJ|C:\LOCAL_OPELLAXD\PROJECT\WIN32\ARC\GDBSERVER\RELEASE\X64\GDBASHLOADUTILS.OBJ|C:\LOCAL_OPELLAXD\PROJECT\WIN32\ARC\GDBSERVER\RELEASE\X64\GDBCFG.OBJ|C:\LOCAL_OPELLAXD\PROJECT\WIN32\ARC\GDBSERVER\RELEASE\X64\GDBDSP.OBJ|C:\LOCAL_OPELLAXD\PROJECT\WIN32\ARC\GDBSERVER\RELEASE\X64\GDBFILES.OBJ|C:\LOCAL_OPELLAXD\PROJECT\WIN32\ARC\GDBSERVER\RELEASE\X64\GDBFLASHPROG.OBJ|C:\LOCAL_OPELLAXD\PROJECT\WIN32\ARC\GDBSERVER\RELEASE\X64\GDBJCON.OBJ|C:\LOCAL_OPELLAXD\PROJECT\WIN32\ARC\GDBSERVER\RELEASE\X64\GDBMAIN.OBJ|C:\LOCAL_OPELLAXD\PROJECT\WIN32\ARC\GDBSERVER\RELEASE\X64\GDBMONITOR.OBJ|C:\LOCAL_OPELLAXD\PROJECT\WIN32\ARC\GDBSERVER\RELEASE\X64\GDBOPT.OBJ|C:\LOCAL_OPELLAXD\PROJECT\WIN32\ARC\GDBSERVER\RELEASE\X64\GDBOPTARC.OBJ|C:\LOCAL_OPELLAXD\PROJECT\WIN32\ARC\GDBSERVER\RELEASE\X64\GDBSERV.OBJ|C:\LOCAL_OPELLAXD\PROJECT\WIN32\ARC\GDBSERVER\RELEASE\X64\GDBSERVERARC.RES|C:\LOCAL_OPELLAXD\PROJECT\WIN32\ARC\GDBSERVER\RELEASE\X64\GDBUTIL.OBJ|C:\LOCAL_OPELLAXD\PROJECT\WIN32\ARC\GDBSERVER\RELEASE\X64\GDBXML.OBJ|C:\LOCAL_OPELLAXD\PROJECT\WIN32\ARC\GDBSERVER\RELEASE\X64\GDBXMLCFGARC.OBJ|C:\LOCAL_OPELLAXD\PROJECT\WIN32\ARC\GDBSERVER\RELEASE\X64\GDBXMLCFGSCARC.OBJ
C:\LOCAL_OPELLAXD\PROJECT\WIN32\ARC\GDBSERVER\RELEASE\X64\ASH-ARC-GDB-SERVER.EXE
C:\LOCAL_OPELLAXD\PROJECT\WIN32\ARC\GDBSERVER\RELEASE\X64\ASH-ARC-GDB-SERVER.PDB
