V3 87
FL F:/svn/Opella-XDforARC/fpga/diag/OpXDDiag_R3/PRJ/ipcore_dir/chipscope_icon.vhd 2016/05/10.10:13:20 P.20131013
EN work/chipscope_icon 1465378948 \
      FL F:/svn/Opella-XDforARC/fpga/diag/OpXDDiag_R3/PRJ/ipcore_dir/chipscope_icon.vhd \
      PB ieee/std_logic_1164 1381692176
AR work/chipscope_icon/chipscope_icon_a 1465378949 \
      FL F:/svn/Opella-XDforARC/fpga/diag/OpXDDiag_R3/PRJ/ipcore_dir/chipscope_icon.vhd \
      EN work/chipscope_icon 1465378948
FL F:/svn/Opella-XDforARC/fpga/diag/OpXDDiag_R3/PRJ/ipcore_dir/chipscope_ila.vhd 2016/05/10.10:13:20 P.20131013
EN work/chipscope_ila 1465378950 \
      FL F:/svn/Opella-XDforARC/fpga/diag/OpXDDiag_R3/PRJ/ipcore_dir/chipscope_ila.vhd \
      PB ieee/std_logic_1164 1381692176
AR work/chipscope_ila/chipscope_ila_a 1465378951 \
      FL F:/svn/Opella-XDforARC/fpga/diag/OpXDDiag_R3/PRJ/ipcore_dir/chipscope_ila.vhd \
      EN work/chipscope_ila 1465378950
FL F:/svn/Opella-XDforARC/fpga/diag/OpXDDiag_R3/SRC/BlockRamBuffers.vhd 2016/05/10.10:13:21 P.20131013
EN work/BlockRamBuffers 1465378956 \
      FL F:/svn/Opella-XDforARC/fpga/diag/OpXDDiag_R3/SRC/BlockRamBuffers.vhd \
      PB ieee/std_logic_1164 1381692176 PB ieee/NUMERIC_STD 1381692181 LB UNISIM \
      PH unisim/VCOMPONENTS 1381692182
AR work/BlockRamBuffers/BlockRamBuffers_a 1465378957 \
      FL F:/svn/Opella-XDforARC/fpga/diag/OpXDDiag_R3/SRC/BlockRamBuffers.vhd \
      EN work/BlockRamBuffers 1465378956 CP GND CP BlockRamData CP RAMB16_S18 \
      CP AND5B3
FL F:/svn/Opella-XDforARC/fpga/diag/OpXDDiag_R3/SRC/BlockRamData.vhd 2016/05/10.10:13:21 P.20131013
EN work/BlockRamData 1465378946 \
      FL F:/svn/Opella-XDforARC/fpga/diag/OpXDDiag_R3/SRC/BlockRamData.vhd \
      PB ieee/std_logic_1164 1381692176 PB ieee/std_logic_arith 1381692177 \
      PB ieee/STD_LOGIC_UNSIGNED 1381692179
AR work/BlockRamData/BlockRamData_a 1465378947 \
      FL F:/svn/Opella-XDforARC/fpga/diag/OpXDDiag_R3/SRC/BlockRamData.vhd \
      EN work/BlockRamData 1465378946
FL F:/svn/Opella-XDforARC/fpga/diag/OpXDDiag_R3/SRC/chipscope/chipscope.vhdl 2016/05/10.10:13:21 P.20131013
EN work/chipscope 1465378972 \
      FL F:/svn/Opella-XDforARC/fpga/diag/OpXDDiag_R3/SRC/chipscope/chipscope.vhdl \
      PB ieee/std_logic_1164 1381692176
AR work/chipscope/chipscope_a 1465378973 \
      FL F:/svn/Opella-XDforARC/fpga/diag/OpXDDiag_R3/SRC/chipscope/chipscope.vhdl \
      EN work/chipscope 1465378972 CP chipscope_icon CP chipscope_ila
FL F:/svn/Opella-XDforARC/fpga/diag/OpXDDiag_R3/SRC/ClockMgt.vhd 2016/05/10.10:13:21 P.20131013
EN work/ClockMgt 1465378970 \
      FL F:/svn/Opella-XDforARC/fpga/diag/OpXDDiag_R3/SRC/ClockMgt.vhd \
      PB ieee/std_logic_1164 1381692176 PB ieee/std_logic_arith 1381692177 \
      PB ieee/STD_LOGIC_UNSIGNED 1381692179
AR work/ClockMgt/ClockMgt_a 1465378971 \
      FL F:/svn/Opella-XDforARC/fpga/diag/OpXDDiag_R3/SRC/ClockMgt.vhd \
      EN work/ClockMgt 1465378970
FL F:/svn/Opella-XDforARC/fpga/diag/OpXDDiag_R3/SRC/CpuInterface.vhd 2016/05/10.10:13:21 P.20131013
EN work/LD16_MXILINX_CpuInterface 1465378960 \
      FL F:/svn/Opella-XDforARC/fpga/diag/OpXDDiag_R3/SRC/CpuInterface.vhd \
      PB ieee/std_logic_1164 1381692176 PB ieee/NUMERIC_STD 1381692181 LB UNISIM \
      PH unisim/VCOMPONENTS 1381692182
AR work/LD16_MXILINX_CpuInterface/LD16_MXILINX_CpuInterface_a 1465378961 \
      FL F:/svn/Opella-XDforARC/fpga/diag/OpXDDiag_R3/SRC/CpuInterface.vhd \
      EN work/LD16_MXILINX_CpuInterface 1465378960 CP LD
EN work/CpuInterface 1465378962 \
      FL F:/svn/Opella-XDforARC/fpga/diag/OpXDDiag_R3/SRC/CpuInterface.vhd \
      PB ieee/std_logic_1164 1381692176 PB ieee/NUMERIC_STD 1381692181 LB UNISIM \
      PH unisim/VCOMPONENTS 1381692182
AR work/CpuInterface/CpuInterface_a 1465378963 \
      FL F:/svn/Opella-XDforARC/fpga/diag/OpXDDiag_R3/SRC/CpuInterface.vhd \
      EN work/CpuInterface 1465378962 CP CpuRegisters CP CpuTpaPins \
      CP BlockRamBuffers CP OR5 CP CpuPreviousReadAccess CP LD \
      CP LD16_MXILINX_CpuInterface
FL F:/svn/Opella-XDforARC/fpga/diag/OpXDDiag_R3/SRC/CpuPreviousReadAccess.vhd 2016/05/10.10:13:21 P.20131013
EN work/CpuPreviousReadAccess 1465378958 \
      FL F:/svn/Opella-XDforARC/fpga/diag/OpXDDiag_R3/SRC/CpuPreviousReadAccess.vhd \
      PB ieee/std_logic_1164 1381692176 PB ieee/std_logic_arith 1381692177 \
      PB ieee/STD_LOGIC_UNSIGNED 1381692179
AR work/CpuPreviousReadAccess/CpuPreviousReadAccess_a 1465378959 \
      FL F:/svn/Opella-XDforARC/fpga/diag/OpXDDiag_R3/SRC/CpuPreviousReadAccess.vhd \
      EN work/CpuPreviousReadAccess 1465378958
FL F:/svn/Opella-XDforARC/fpga/diag/OpXDDiag_R3/SRC/CpuRegisters.vhd 2016/05/10.10:13:21 P.20131013
EN work/CpuRegisters 1465378952 \
      FL F:/svn/Opella-XDforARC/fpga/diag/OpXDDiag_R3/SRC/CpuRegisters.vhd \
      PB ieee/std_logic_1164 1381692176 PB ieee/std_logic_arith 1381692177 \
      PB ieee/STD_LOGIC_UNSIGNED 1381692179
AR work/CpuRegisters/CpuRegisters_a 1465378953 \
      FL F:/svn/Opella-XDforARC/fpga/diag/OpXDDiag_R3/SRC/CpuRegisters.vhd \
      EN work/CpuRegisters 1465378952
FL F:/svn/Opella-XDforARC/fpga/diag/OpXDDiag_R3/SRC/CpuTpaPins.vhd 2016/05/10.10:13:21 P.20131013
EN work/CpuTpaPins 1465378954 \
      FL F:/svn/Opella-XDforARC/fpga/diag/OpXDDiag_R3/SRC/CpuTpaPins.vhd \
      PB ieee/std_logic_1164 1381692176 PB ieee/std_logic_arith 1381692177 \
      PB ieee/STD_LOGIC_UNSIGNED 1381692179
AR work/CpuTpaPins/CpuTpaPins_a 1465378955 \
      FL F:/svn/Opella-XDforARC/fpga/diag/OpXDDiag_R3/SRC/CpuTpaPins.vhd \
      EN work/CpuTpaPins 1465378954
FL F:/svn/Opella-XDforARC/fpga/diag/OpXDDiag_R3/SRC/OpXDDiag.vhd 2016/06/08.10:42:19 P.20131013
EN work/OpXDDiag 1465378974 \
      FL F:/svn/Opella-XDforARC/fpga/diag/OpXDDiag_R3/SRC/OpXDDiag.vhd \
      PB ieee/std_logic_1164 1381692176 PB ieee/NUMERIC_STD 1381692181 LB UNISIM \
      PH unisim/VCOMPONENTS 1381692182
AR work/OpXDDiag/OpXDDiag_a 1465378975 \
      FL F:/svn/Opella-XDforARC/fpga/diag/OpXDDiag_R3/SRC/OpXDDiag.vhd \
      EN work/OpXDDiag 1465378974 CP CpuInterface CP TpaInterface CP ResetMgt \
      CP ClockMgt CP IBUFG CP IBUF CP INV CP BUFG CP chipscope
FL F:/svn/Opella-XDforARC/fpga/diag/OpXDDiag_R3/SRC/ResetMgt.vhd 2016/05/10.10:13:21 P.20131013
EN work/ResetMgt 1465378968 \
      FL F:/svn/Opella-XDforARC/fpga/diag/OpXDDiag_R3/SRC/ResetMgt.vhd \
      PB ieee/std_logic_1164 1381692176 PB ieee/NUMERIC_STD 1381692181 LB UNISIM \
      PH unisim/VCOMPONENTS 1381692182
AR work/ResetMgt/ResetMgt_a 1465378969 \
      FL F:/svn/Opella-XDforARC/fpga/diag/OpXDDiag_R3/SRC/ResetMgt.vhd \
      EN work/ResetMgt 1465378968 CP FD
FL F:/svn/Opella-XDforARC/fpga/diag/OpXDDiag_R3/SRC/TpaInterface.vhd 2016/05/10.10:13:21 P.20131013
EN work/FD4CE_MXILINX_TpaInterface 1465378964 \
      FL F:/svn/Opella-XDforARC/fpga/diag/OpXDDiag_R3/SRC/TpaInterface.vhd \
      PB ieee/std_logic_1164 1381692176 PB ieee/NUMERIC_STD 1381692181 LB UNISIM \
      PH unisim/VCOMPONENTS 1381692182
AR work/FD4CE_MXILINX_TpaInterface/FD4CE_MXILINX_TpaInterface_a 1465378965 \
      FL F:/svn/Opella-XDforARC/fpga/diag/OpXDDiag_R3/SRC/TpaInterface.vhd \
      EN work/FD4CE_MXILINX_TpaInterface 1465378964 CP FDCE
EN work/TpaInterface 1465378966 \
      FL F:/svn/Opella-XDforARC/fpga/diag/OpXDDiag_R3/SRC/TpaInterface.vhd \
      PB ieee/std_logic_1164 1381692176 PB ieee/NUMERIC_STD 1381692181 LB UNISIM \
      PH unisim/VCOMPONENTS 1381692182
AR work/TpaInterface/TpaInterface_a 1465378967 \
      FL F:/svn/Opella-XDforARC/fpga/diag/OpXDDiag_R3/SRC/TpaInterface.vhd \
      EN work/TpaInterface 1465378966 CP IBUF CP FDC CP FD4CE_MXILINX_TpaInterface \
      CP VCC CP BUFG
FL F:/svn/opellaxd/fpga/diag/OpXDDiag_R3/PRJ/ipcore_dir/chipscope_icon.vhd 2016/04/28.17:11:23 P.20131013
FL F:/svn/opellaxd/fpga/diag/OpXDDiag_R3/PRJ/ipcore_dir/chipscope_ila.vhd 2016/05/04.10:07:37 P.20131013
FL F:/svn/opellaxd/fpga/diag/OpXDDiag_R3/SRC/BlockRamBuffers.vhd 2016/05/04.10:30:33 P.20131013
FL F:/svn/opellaxd/fpga/diag/OpXDDiag_R3/SRC/BlockRamData.vhd 2016/05/04.10:23:12 P.20131013
FL F:/svn/opellaxd/fpga/diag/OpXDDiag_R3/SRC/chipscope/chipscope.vhdl 2016/05/04.10:05:00 P.20131013
FL F:/svn/opellaxd/fpga/diag/OpXDDiag_R3/SRC/ClockMgt.vhd 2016/05/04.10:29:26 P.20131013
FL F:/svn/opellaxd/fpga/diag/OpXDDiag_R3/SRC/CpuInterface.vhd 2016/05/04.17:20:21 P.20131013
FL F:/svn/opellaxd/fpga/diag/OpXDDiag_R3/SRC/CpuPreviousReadAccess.vhd 2016/05/04.10:31:17 P.20131013
FL F:/svn/opellaxd/fpga/diag/OpXDDiag_R3/SRC/CpuRegisters.vhd 2016/05/04.17:18:09 P.20131013
FL F:/svn/opellaxd/fpga/diag/OpXDDiag_R3/SRC/CpuTpaPins.vhd 2016/05/04.10:16:01 P.20131013
FL F:/svn/opellaxd/fpga/diag/OpXDDiag_R3/SRC/DmaTransfer.vhd 2016/05/04.10:23:52 P.20131013
EN work/DmaTransfer 1462374157 \
      FL F:/svn/opellaxd/fpga/diag/OpXDDiag_R3/SRC/DmaTransfer.vhd \
      PB ieee/std_logic_1164 1381692176 PB ieee/std_logic_arith 1381692177 \
      PB ieee/STD_LOGIC_UNSIGNED 1381692179
AR work/DmaTransfer/DmaTransfer_a 1462374158 \
      FL F:/svn/opellaxd/fpga/diag/OpXDDiag_R3/SRC/DmaTransfer.vhd \
      EN work/DmaTransfer 1462374157
FL F:/svn/opellaxd/fpga/diag/OpXDDiag_R3/SRC/OpXDDiag.vhd 2016/05/04.16:07:57 P.20131013
FL F:/svn/opellaxd/fpga/diag/OpXDDiag_R3/SRC/ResetMgt.vhd 2016/05/04.10:28:47 P.20131013
FL F:/svn/opellaxd/fpga/diag/OpXDDiag_R3/SRC/TpaInterface.vhd 2016/05/05.12:37:03 P.20131013
