config.c:32:13:GetProductSerialNumber	4	static
config.c:49:13:GetProductManufacturerName	4	static
config.c:67:13:GetProductName	0	static
config.c:101:6:GetFirmwareInfo	8	static
config.c:130:6:GetHardwareInfo	8	static
config.c:161:15:GetHardwareIDCode	0	static
config.c:184:6:GetRISCVDiskwareInfo	12	static
config.c:216:6:GetARCDiskwareInfo	12	static
