EN blockrambuffers NULL F:/svn/Opella-XDforARC/fpga/production/OpXDDiag_R3/SRC/BlockRamBuffers.vhd sub00/vhpl06 1465379214
EN blockramdata NULL F:/svn/Opella-XDforARC/fpga/production/OpXDDiag_R3/SRC/BlockRamData.vhd sub00/vhpl00 1465379204
EN cpupreviousreadaccess NULL F:/svn/Opella-XDforARC/fpga/production/OpXDDiag_R3/SRC/CpuPreviousReadAccess.vhd sub00/vhpl08 1465379216
EN cputpapins NULL F:/svn/Opella-XDforARC/fpga/production/OpXDDiag_R3/SRC/CpuTpaPins.vhd sub00/vhpl04 1465379212
EN tpainterface NULL F:/svn/Opella-XDforARC/fpga/production/OpXDDiag_R3/SRC/TpaInterface.vhd sub00/vhpl18 1465379224
AR blockramdata blockramdata_a F:/svn/Opella-XDforARC/fpga/production/OpXDDiag_R3/SRC/BlockRamData.vhd sub00/vhpl01 1465379205
EN chipscope NULL F:/svn/Opella-XDforARC/fpga/production/OpXDDiag_R3/SRC/chipscope/chipscope.vhdl sub00/vhpl24 1465379230
AR chipscope_ila chipscope_ila_a F:/svn/Opella-XDforARC/fpga/production/OpXDDiag_R3/PRJ/ipcore_dir/chipscope_ila.vhd sub00/vhpl31 1465379209
AR chipscope chipscope_a F:/svn/Opella-XDforARC/fpga/production/OpXDDiag_R3/SRC/chipscope/chipscope.vhdl sub00/vhpl25 1465379231
AR resetmgt resetmgt_a F:/svn/Opella-XDforARC/fpga/production/OpXDDiag_R3/SRC/ResetMgt.vhd sub00/vhpl21 1465379227
AR blockrambuffers blockrambuffers_a F:/svn/Opella-XDforARC/fpga/production/OpXDDiag_R3/SRC/BlockRamBuffers.vhd sub00/vhpl07 1465379215
AR ld16_mxilinx_cpuinterface ld16_mxilinx_cpuinterface_a F:/svn/Opella-XDforARC/fpga/production/OpXDDiag_R3/SRC/CpuInterface.vhd sub00/vhpl13 1465379219
AR opxddiag opxddiag_a F:/svn/Opella-XDforARC/fpga/production/OpXDDiag_R3/SRC/OpXDDiag.vhd sub00/vhpl27 1465379233
AR clockmgt clockmgt_a F:/svn/Opella-XDforARC/fpga/production/OpXDDiag_R3/SRC/ClockMgt.vhd sub00/vhpl23 1465379229
EN clockmgt NULL F:/svn/Opella-XDforARC/fpga/production/OpXDDiag_R3/SRC/ClockMgt.vhd sub00/vhpl22 1465379228
EN chipscope_ila NULL F:/svn/Opella-XDforARC/fpga/production/OpXDDiag_R3/PRJ/ipcore_dir/chipscope_ila.vhd sub00/vhpl30 1465379208
EN opxddiag NULL F:/svn/Opella-XDforARC/fpga/production/OpXDDiag_R3/SRC/OpXDDiag.vhd sub00/vhpl26 1465379232
EN ld16_mxilinx_cpuinterface NULL F:/svn/Opella-XDforARC/fpga/production/OpXDDiag_R3/SRC/CpuInterface.vhd sub00/vhpl12 1465379218
EN chipscope_icon NULL F:/svn/Opella-XDforARC/fpga/production/OpXDDiag_R3/PRJ/ipcore_dir/chipscope_icon.vhd sub00/vhpl28 1465379206
AR dmatransfer dmatransfer_a F:/svn/opellaxd/fpga/diag/OpXDDiag_R3/SRC/DmaTransfer.vhd sub00/vhpl11 1462374158
EN cpuinterface NULL F:/svn/Opella-XDforARC/fpga/production/OpXDDiag_R3/SRC/CpuInterface.vhd sub00/vhpl14 1465379220
EN fd4ce_mxilinx_tpainterface NULL F:/svn/Opella-XDforARC/fpga/production/OpXDDiag_R3/SRC/TpaInterface.vhd sub00/vhpl16 1465379222
AR fd4ce_mxilinx_tpainterface fd4ce_mxilinx_tpainterface_a F:/svn/Opella-XDforARC/fpga/production/OpXDDiag_R3/SRC/TpaInterface.vhd sub00/vhpl17 1465379223
AR cpuregisters cpuregisters_a F:/svn/Opella-XDforARC/fpga/production/OpXDDiag_R3/SRC/CpuRegisters.vhd sub00/vhpl03 1465379211
AR cpuinterface cpuinterface_a F:/svn/Opella-XDforARC/fpga/production/OpXDDiag_R3/SRC/CpuInterface.vhd sub00/vhpl15 1465379221
AR chipscope_icon chipscope_icon_a F:/svn/Opella-XDforARC/fpga/production/OpXDDiag_R3/PRJ/ipcore_dir/chipscope_icon.vhd sub00/vhpl29 1465379207
EN cpuregisters NULL F:/svn/Opella-XDforARC/fpga/production/OpXDDiag_R3/SRC/CpuRegisters.vhd sub00/vhpl02 1465379210
AR cputpapins cputpapins_a F:/svn/Opella-XDforARC/fpga/production/OpXDDiag_R3/SRC/CpuTpaPins.vhd sub00/vhpl05 1465379213
EN resetmgt NULL F:/svn/Opella-XDforARC/fpga/production/OpXDDiag_R3/SRC/ResetMgt.vhd sub00/vhpl20 1465379226
AR cpupreviousreadaccess cpupreviousreadaccess_a F:/svn/Opella-XDforARC/fpga/production/OpXDDiag_R3/SRC/CpuPreviousReadAccess.vhd sub00/vhpl09 1465379217
AR tpainterface tpainterface_a F:/svn/Opella-XDforARC/fpga/production/OpXDDiag_R3/SRC/TpaInterface.vhd sub00/vhpl19 1465379225
EN dmatransfer NULL F:/svn/opellaxd/fpga/diag/OpXDDiag_R3/SRC/DmaTransfer.vhd sub00/vhpl10 1462374157
