^C:\LOCAL_OPELLAXD\PROJECT\WIN32\RISCV\OPXDRISCV\RELEASE\X64\DEBUG.OBJ|C:\LOCAL_OPELLAXD\PROJECT\WIN32\RISCV\OPXDRISCV\RELEASE\X64\DRVOPXD.OBJ|C:\LOCAL_OPELLAXD\PROJECT\WIN32\RISCV\OPXDRISCV\RELEASE\X64\DRVOPXDRISCV.OBJ|C:\LOCAL_OPELLAXD\PROJECT\WIN32\RISCV\OPXDRISCV\RELEASE\X64\INTERFACE.OBJ|C:\LOCAL_OPELLAXD\PROJECT\WIN32\RISCV\OPXDRISCV\RELEASE\X64\LIBUSB_DYN.OBJ|C:\LOCAL_OPELLAXD\PROJECT\WIN32\RISCV\OPXDRISCV\RELEASE\X64\ML_RISCV.OBJ
C:\LOCAL_OPELLAXD\PROJECT\WIN32\RISCV\OPXDRISCV\RELEASE\X64\OPXDRISCV.DLL
C:\LOCAL_OPELLAXD\PROJECT\WIN32\RISCV\OPXDRISCV\RELEASE\X64\OPXDRISCV.PDB
