^C:\LOCAL_OPELLAXD\PROTOCOL\COMMON\DRVOPXD.CPP|C:\LOCAL_OPELLAXD\PROTOCOL\COMMON\DRVOPXDARC.CPP|C:\LOCAL_OPELLAXD\PROTOCOL\COMMON\DRVOPXDARM.CPP|C:\LOCAL_OPELLAXD\PROTOCOL\COMMON\DRVOPXDMIPS.CPP|C:\LOCAL_OPELLAXD\PROTOCOL\COMMON\DRVOPXDRISCV.CPP|C:\LOCAL_OPELLAXD\PROTOCOL\COMMON\DRVOPXDTARCH.CPP|C:\LOCAL_OPELLAXD\PROTOCOL\COMMON\LIBUSB_DYN.CPP|C:\LOCAL_OPELLAXD\UTILITY\OPXDDIAG\DIAGGEN.CPP|C:\LOCAL_OPELLAXD\UTILITY\OPXDDIAG\DIAGINFO.CPP|C:\LOCAL_OPELLAXD\UTILITY\OPXDDIAG\DIAGOPT.CPP|C:\LOCAL_OPELLAXD\UTILITY\OPXDDIAG\DIAGTEST.CPP|C:\LOCAL_OPELLAXD\UTILITY\OPXDDIAG\JTAGCON\JCONCMD.CPP|C:\LOCAL_OPELLAXD\UTILITY\OPXDDIAG\JTAGCON\JCONUTL.CPP|C:\LOCAL_OPELLAXD\UTILITY\OPXDDIAG\MAIN.CPP
C:\LOCAL_OPELLAXD\PROJECT\WIN32\UTILITY\OPXDDIAG\RELEASE-ARC\X64\VC142.PDB
C:\LOCAL_OPELLAXD\PROJECT\WIN32\UTILITY\OPXDDIAG\RELEASE-ARC\X64\MAIN.OBJ
C:\LOCAL_OPELLAXD\PROJECT\WIN32\UTILITY\OPXDDIAG\RELEASE-ARC\X64\JCONUTL.OBJ
C:\LOCAL_OPELLAXD\PROJECT\WIN32\UTILITY\OPXDDIAG\RELEASE-ARC\X64\JCONCMD.OBJ
C:\LOCAL_OPELLAXD\PROJECT\WIN32\UTILITY\OPXDDIAG\RELEASE-ARC\X64\DIAGTEST.OBJ
C:\LOCAL_OPELLAXD\PROJECT\WIN32\UTILITY\OPXDDIAG\RELEASE-ARC\X64\DIAGOPT.OBJ
C:\LOCAL_OPELLAXD\PROJECT\WIN32\UTILITY\OPXDDIAG\RELEASE-ARC\X64\DIAGINFO.OBJ
C:\LOCAL_OPELLAXD\PROJECT\WIN32\UTILITY\OPXDDIAG\RELEASE-ARC\X64\DIAGGEN.OBJ
C:\LOCAL_OPELLAXD\PROJECT\WIN32\UTILITY\OPXDDIAG\RELEASE-ARC\X64\LIBUSB_DYN.OBJ
C:\LOCAL_OPELLAXD\PROJECT\WIN32\UTILITY\OPXDDIAG\RELEASE-ARC\X64\DRVOPXDTARCH.OBJ
C:\LOCAL_OPELLAXD\PROJECT\WIN32\UTILITY\OPXDDIAG\RELEASE-ARC\X64\DRVOPXDRISCV.OBJ
C:\LOCAL_OPELLAXD\PROJECT\WIN32\UTILITY\OPXDDIAG\RELEASE-ARC\X64\DRVOPXDMIPS.OBJ
C:\LOCAL_OPELLAXD\PROJECT\WIN32\UTILITY\OPXDDIAG\RELEASE-ARC\X64\DRVOPXDARM.OBJ
C:\LOCAL_OPELLAXD\PROJECT\WIN32\UTILITY\OPXDDIAG\RELEASE-ARC\X64\DRVOPXDARC.OBJ
C:\LOCAL_OPELLAXD\PROJECT\WIN32\UTILITY\OPXDDIAG\RELEASE-ARC\X64\DRVOPXD.OBJ
^C:\LOCAL_OPELLAXD\PROTOCOL\COMMON\DRVOPXD.CPP
C:\LOCAL_OPELLAXD\PROJECT\WIN32\UTILITY\OPXDDIAG\RELEASE-ARC\X64\VC142.PDB
^C:\LOCAL_OPELLAXD\PROTOCOL\COMMON\DRVOPXDARC.CPP
C:\LOCAL_OPELLAXD\PROJECT\WIN32\UTILITY\OPXDDIAG\RELEASE-ARC\X64\VC142.PDB
^C:\LOCAL_OPELLAXD\PROTOCOL\COMMON\DRVOPXDARM.CPP
C:\LOCAL_OPELLAXD\PROJECT\WIN32\UTILITY\OPXDDIAG\RELEASE-ARC\X64\VC142.PDB
^C:\LOCAL_OPELLAXD\PROTOCOL\COMMON\DRVOPXDMIPS.CPP
C:\LOCAL_OPELLAXD\PROJECT\WIN32\UTILITY\OPXDDIAG\RELEASE-ARC\X64\VC142.PDB
^C:\LOCAL_OPELLAXD\PROTOCOL\COMMON\DRVOPXDRISCV.CPP
C:\LOCAL_OPELLAXD\PROJECT\WIN32\UTILITY\OPXDDIAG\RELEASE-ARC\X64\VC142.PDB
^C:\LOCAL_OPELLAXD\PROTOCOL\COMMON\DRVOPXDTARCH.CPP
C:\LOCAL_OPELLAXD\PROJECT\WIN32\UTILITY\OPXDDIAG\RELEASE-ARC\X64\VC142.PDB
^C:\LOCAL_OPELLAXD\PROTOCOL\COMMON\LIBUSB_DYN.CPP
C:\LOCAL_OPELLAXD\PROJECT\WIN32\UTILITY\OPXDDIAG\RELEASE-ARC\X64\VC142.PDB
^C:\LOCAL_OPELLAXD\UTILITY\OPXDDIAG\DIAGGEN.CPP
C:\LOCAL_OPELLAXD\PROJECT\WIN32\UTILITY\OPXDDIAG\RELEASE-ARC\X64\VC142.PDB
^C:\LOCAL_OPELLAXD\UTILITY\OPXDDIAG\DIAGINFO.CPP
C:\LOCAL_OPELLAXD\PROJECT\WIN32\UTILITY\OPXDDIAG\RELEASE-ARC\X64\VC142.PDB
^C:\LOCAL_OPELLAXD\UTILITY\OPXDDIAG\DIAGOPT.CPP
C:\LOCAL_OPELLAXD\PROJECT\WIN32\UTILITY\OPXDDIAG\RELEASE-ARC\X64\VC142.PDB
^C:\LOCAL_OPELLAXD\UTILITY\OPXDDIAG\DIAGTEST.CPP
C:\LOCAL_OPELLAXD\PROJECT\WIN32\UTILITY\OPXDDIAG\RELEASE-ARC\X64\VC142.PDB
^C:\LOCAL_OPELLAXD\UTILITY\OPXDDIAG\JTAGCON\JCONCMD.CPP
C:\LOCAL_OPELLAXD\PROJECT\WIN32\UTILITY\OPXDDIAG\RELEASE-ARC\X64\VC142.PDB
^C:\LOCAL_OPELLAXD\UTILITY\OPXDDIAG\JTAGCON\JCONUTL.CPP
C:\LOCAL_OPELLAXD\PROJECT\WIN32\UTILITY\OPXDDIAG\RELEASE-ARC\X64\VC142.PDB
^C:\LOCAL_OPELLAXD\UTILITY\OPXDDIAG\MAIN.CPP
C:\LOCAL_OPELLAXD\PROJECT\WIN32\UTILITY\OPXDDIAG\RELEASE-ARC\X64\VC142.PDB
