common.h:107:29:get_wvalue	24	static
riscvlayer.c:56:6:RISCVL_InitializeJtagForRiscv	40	static
riscvlayer.c:126:15:RISCVL_SelectRiscvTarget	24	static
riscvlayer.c:169:15:RISCVL_TargetReset	32	static
riscvlayer.c:221:6:RISCVL_DmiAccessDataIn	32	static
riscvlayer.c:240:15:RISCVL_DmRead	72	static
riscvlayer.c:309:15:RISCVL_DmWriteData0Multiple	96	static
riscvlayer.c:418:15:RISCVL_DmWrite	72	static
riscvlayer.c:488:15:RISCVL_Halt	64	static
riscvlayer.c:579:15:RISCVL_MultipleHalt	64	static
riscvlayer.c:629:15:RISCVL_Fence_i	48	static
riscvlayer.c:672:15:RISCVL_Execute_Fence_i	48	static
riscvlayer.c:699:15:RISCVL_Resume	56	static
riscvlayer.c:770:15:RISCVL_MultipleResume	48	static
riscvlayer.c:815:15:RISCVL_StatusProc	64	static
riscvlayer.c:869:15:RISCVL_GprsAndDpcRead	48	static
riscvlayer.c:907:15:RISCVL_RegisterAbsAccessRegGprsRead	48	static
riscvlayer.c:952:15:RISCVL_RegisterAbsAccessRegGprsWrite	56	static
riscvlayer.c:999:15:RISCVL_RegisterAbsAccessSingleRead	48	static
riscvlayer.c:1064:15:RISCVL_ReadSingleRegister	64	static
riscvlayer.c:1181:15:RISCVL_ReadSingleFloating	72	static
riscvlayer.c:1345:15:RISCVL_RegisterAbsAccessGprsAndFprsSingleWrite	40	static
riscvlayer.c:1385:15:RISCVL_WriteSingleRegister	48	static
riscvlayer.c:1504:15:RISCVL_SingleStep	72	static
riscvlayer.c:1591:15:RISCVL_ProgramBufferReadCsr	48	static
riscvlayer.c:1652:15:RISCVL_ProgramBufferWriteCsr	48	static
riscvlayer.c:1698:15:RISCVL_WriteCsr	48	static
riscvlayer.c:1729:16:RISCVL_DtmDiscovery	48	static
riscvlayer.c:1783:15:RISCVL_RegisterMechanism	40	static
riscvlayer.c:1818:15:RISCVL_SystemBusAccess	32	static
riscvlayer.c:1877:15:RISCVL_MemoryMechanism	32	static
riscvlayer.c:1909:15:RISCVL_HartInformation	56	static
riscvlayer.c:1980:15:RISCVL_ArchSupport	24	static
riscvlayer.c:2018:15:RISCVL_AbsCSRSupport	40	static
riscvlayer.c:2069:15:RISCVL_DiscoverDebugModules	48	static
riscvlayer.c:2123:15:RISCVL_CheckAbsAutoExecSupport	32	static
riscvlayer.c:2166:15:RISCVL_DiscoveryOptions	56	static
riscvlayer.c:2248:15:RISCVL_ReadDMIAccessReg	32	static
riscvlayer.c:2280:15:RISCVL_WriteDMIAccessReg	32	static
riscvlayer.c:2314:15:RISCVL_ExecAbstractCmdForRegOp	40	static
riscvlayer.c:2412:15:RISCVL_AbsAccessRegCmdError	32	static
riscvlayer.c:2501:15:RISCVL_ReadMemoryWord	48	static
riscvlayer.c:2567:15:RISCVL_WriteMemoryWord	48	static
riscvlayer.c:2636:15:RISCVL_ReadMemoryWordByte	48	static
riscvlayer.c:2701:15:RISCVL_ReadMemoryWordHalf	48	static
riscvlayer.c:2767:15:RISCVL_ReadMemoryWordBlock	48	static
riscvlayer.c:2862:15:RISCVL_WriteMemoryWordBlock	48	static
riscvlayer.c:2959:15:RISCVL_WriteMemoryWordByte	48	static
riscvlayer.c:3022:15:RISCVL_WriteMemoryWordHalf	48	static
riscvlayer.c:3086:15:RISCVL_ReadMemoryProgBuf	40	static
riscvlayer.c:3131:15:RISCVL_WriteMemoryProgBuf	40	static
riscvlayer.c:3184:15:RISCVL_AddTrigger	80	static
riscvlayer.c:3322:15:RISCVL_RemoveTrigger	64	static
riscvlayer.c:3378:15:RISCVL_HandleRemoveTrigger	40	static
riscvlayer.c:3432:15:RISCVL_HandleAddTrigger	64	static
riscvlayer.c:3514:15:RISCVL_TriggerInfo	80	static
riscvlayer.c:3579:15:RISCVL_SystemBusyErrorCheck	40	static
riscvlayer.c:3672:15:RISCVL_SystemBusReadMemory	48	static
riscvlayer.c:3749:15:RISCVL_SystemBusWriteMemory	56	static
riscvlayer.c:3825:15:RISCVL_ExecAbstractCmdForMemOp	40	static
riscvlayer.c:3902:15:RISCVL_SelectMemoryAccessSize	24	static
riscvlayer.c:3942:15:RISCVL_StoreReadValueToBuffer	32	static
riscvlayer.c:4007:15:RISCVL_GetValueFromBuffer	32	static
riscvlayer.c:4079:15:RISCVL_AbstractAccessReadMemoryWord	40	static
riscvlayer.c:4146:15:RISCVL_AbstractAccessWriteMemoryWord	48	static
riscvlayer.c:4236:15:RISCVL_AbstractAccessReadMemoryBlock	40	static
riscvlayer.c:4339:15:RISCVL_AbstractAccessReadMemoryBlockManual	40	static
riscvlayer.c:4425:15:RISCVL_AbstractAccessReadMemory	40	static
riscvlayer.c:4469:15:RISCVL_AbstractAccessWriteMemoryBlock	48	static
riscvlayer.c:4613:15:RISCVL_AbstractAccessWriteMemoryBlockManual	48	static
riscvlayer.c:4716:15:RISCVL_AbstractAccessWriteMemory	40	static
riscvlayer.c:4762:15:RISCVL_ReadMemory	64	static
riscvlayer.c:4816:15:RISCVL_WriteMemory	56	static
riscvlayer.c:4861:15:RISCVL_Ebreaks	48	static
riscvlayer.c:4894:15:RISCVL_CheckArc	24	static
riscvlayer.c:4925:16:RISCVL_Dtm	40	static
riscvlayer.c:4959:15:RISCVL_AbstractDataResest	32	static
riscvlayer.c:4994:6:RISCVL_SelectDMIAcessRegInIR	16	static
