romapi_18xx.h:115:20:iap_entry	16	static
iap_18xx.c:44:15:Chip_IAP_Init	48	static
iap_18xx.c:64:15:Chip_IAP_PreSectorForReadWrite	64	static
iap_18xx.c:87:15:Chip_IAP_CopyRamToFlash	64	static
iap_18xx.c:114:15:Chip_IAP_EraseSector	64	static
iap_18xx.c:141:15:Chip_IAP_Compare	64	static
iap_18xx.c:164:15:Chip_IAP_SetBootFlashBank	56	static
