#Release 14.7 - par P.20131013 (nt)
#Copyright (c) 1995-2013 Xilinx, Inc.  All rights reserved.

#Wed Jun 08 10:48:28 2016

#
## NOTE: This file is designed to be imported into a spreadsheet program
# such as Microsoft Excel for viewing, printing and sorting. The |
# character is used as the data field separator. This file is also designed
# to support parsing.
#
#INPUT FILE:       OpXDDiag_map.ncd
#OUTPUT FILE:      OpXDDiag_pad.csv
#PART TYPE:        xc3s500e
#SPEED GRADE:      -4
#PACKAGE:          ft256
#
# Pinout by Pin Number:
# 
# -----,-----,-----,-----,-----,-----,-----,-----,-----,-----,-----,-----,-----,-----,-----,
Pin Number,Signal Name,Pin Usage,Pin Name,Direction,IO Standard,IO Bank Number,Drive (mA),Slew Rate,Termination,IOB Delay,Voltage,Constraint,IO Register,Signal Integrity,
A1,,,GND,,,,,,,,,,,,
A2,,,TDI,,,,,,,,,,,,
A3,,IBUF,IP,UNUSED,,0,,,,,,,,,
A4,,DIFFS,IO_L17N_0/VREF_0,UNUSED,,0,,,,,,,,,
A5,,DIFFM,IO_L17P_0,UNUSED,,0,,,,,,,,,
A6,,,VCCAUX,,,,,,,,2.5,,,,
A7,XDATA<9>,IOB,IO,BIDIR,LVCMOS33,0,12,FAST,NONE**,NONE,,LOCATED,NO,NONE,
A8,XSYSCLOCK,IBUF,IP_L10P_0/GCLK8,INPUT,LVCMOS33,0,,,,NONE,,LOCATED,NO,NONE,
A9,,DIFFS,IO_L09N_0/GCLK7,UNUSED,,0,,,,,,,,,
A10,TPA_FSIO3,IBUF,IO_L09P_0/GCLK6,INPUT,LVCMOS33,0,,,,NONE,,LOCATED,NO,NONE,
A11,,,VCCAUX,,,,,,,,2.5,,,,
A12,,IOB,IO,UNUSED,,0,,,,,,,,,
A13,XADDRESS<9>,IBUF,IO_L03N_0/VREF_0,INPUT,LVCMOS33,0,,,,NONE,,LOCATED,NO,NONE,
A14,XADDRESS<3>,IBUF,IO_L01N_0,INPUT,LVCMOS33,0,,,,NONE,,LOCATED,NO,NONE,
A15,,,TCK,,,,,,,,,,,,
A16,,,GND,,,,,,,,,,,,
B1,TPA_FSIO8,IBUF,IO_L01P_3,INPUT,LVCMOS33,3,,,,NONE,,LOCATED,NO,NONE,
B2,,DIFFS,IO_L01N_3,UNUSED,,3,,,,,,,,,
B3,,DIFFS,IO_L19N_0/HSWAP,UNUSED,,0,,,,,,PROHIBITED,,,
B4,,IOB,IO,UNUSED,,0,,,,,,,,,
B5,,,VCCO_0,,,0,,,,,3.30,,,,
B6,,IBUF,IP,UNUSED,,0,,,,,,,,,
B7,XDATA<3>,IOB,IO_L13P_0,BIDIR,LVCMOS33,0,12,FAST,NONE**,NONE,,LOCATED,NO,NONE,
B8,PLLCLOCK1,IBUF,IP_L10N_0/GCLK9,INPUT,LVCMOS33,0,,,,NONE,,LOCATED,NO,NONE,
B9,,,GND,,,,,,,,,,,,
B10,XADDRESS<11>,IBUF,IP,INPUT,LVCMOS33,0,,,,IFD,,LOCATED,YES,NONE,
B11,XADDRESS<12>,IBUF,IO_L05N_0/VREF_0,INPUT,LVCMOS33,0,,,,IFD,,LOCATED,YES,NONE,
B12,,,VCCO_0,,,0,,,,,3.30,,,,
B13,XADDRESS<16>,IBUF,IO_L03P_0,INPUT,LVCMOS33,0,,,,NONE,,LOCATED,NO,NONE,
B14,DMA_DREQ,IOB,IO_L01P_0,OUTPUT,LVCMOS33,0,12,SLOW,NONE**,,,LOCATED,YES,NONE,
B15,,,TMS,,,,,,,,,,,,
B16,,IBUF,IP,UNUSED,,1,,,,,,,,,
C1,TPA_FSIO7,IBUF,IO_L02P_3,INPUT,LVCMOS33,3,,,,NONE,,LOCATED,NO,NONE,
C2,nXOE,IBUF,IO_L02N_3/VREF_3,INPUT,LVCMOS33,3,,,,NONE,,LOCATED,NO,NONE,
C3,,DIFFM,IO_L19P_0,UNUSED,,0,,,,,,,,,
C4,,DIFFS,IO_L18N_0,UNUSED,,0,,,,,,,,,
C5,,DIFFM,IO_L18P_0,UNUSED,,0,,,,,,,,,
C6,,DIFFM,IO_L15P_0,UNUSED,,0,,,,,,,,,
C7,XDATA<2>,IOB,IO_L13N_0,BIDIR,LVCMOS33,0,12,FAST,NONE**,NONE,,LOCATED,NO,NONE,
C8,XDATA<4>,IOB,IO_L11P_0/GCLK10,BIDIR,LVCMOS33,0,12,FAST,NONE**,NONE,,LOCATED,NO,NONE,
C9,,DIFFSI,IP_L07N_0,UNUSED,,0,,,,,,,,,
C10,XADDRESS<19>,IBUF,IP_L07P_0,INPUT,LVCMOS33,0,,,,NONE,,LOCATED,NO,NONE,
C11,XADDRESS<0>,IBUF,IO_L05P_0,INPUT,LVCMOS33,0,,,,NONE,,LOCATED,NO,NONE,
C12,XADDRESS<7>,IBUF,IP_L02N_0,INPUT,LVCMOS33,0,,,,NONE,,LOCATED,NO,NONE,
C13,nXBS<0>,IBUF,IP,INPUT,LVCMOS33,0,,,,IFD,,UNLOCATED,YES,NONE,
C14,,,TDO,,,,,,,,,,,,
C15,TPA_DIO0_N,IBUF,IO_L19N_1/LDC2,INPUT,LVCMOS33,1,,,,NONE,,LOCATED,NO,NONE,
C16,TPA_DIO0_P,IBUF,IO_L19P_1/LDC1,INPUT,LVCMOS33,1,,,,NONE,,LOCATED,NO,NONE,
D1,TPA_LOOP,IBUF,IO_L05P_3,INPUT,LVCMOS33,3,,,,NONE,,LOCATED,NO,NONE,
D2,,IBUF,IP,UNUSED,,3,,,,,,,,,
D3,,,PROG_B,,,,,,,,,,,,
D4,,,VCCINT,,,,,,,,1.2,,,,
D5,,DIFFMI,IP_L16P_0,UNUSED,,0,,,,,,,,,
D6,,DIFFS,IO_L15N_0,UNUSED,,0,,,,,,,,,
D7,,DIFFS,IO_L14N_0/VREF_0,UNUSED,,0,,,,,,,,,
D8,XDATA<15>,IOB,IO_L11N_0/GCLK11,BIDIR,LVCMOS33,0,12,FAST,NONE**,NONE,,LOCATED,NO,NONE,
D9,TPA_FSIO0,IBUF,IO/VREF_0,INPUT,LVCMOS33,0,,,,NONE,,LOCATED,NO,NONE,
D10,,DIFFM,IO_L06P_0,UNUSED,,0,,,,,,,,,
D11,XADDRESS<13>,IBUF,IO_L04P_0,INPUT,LVCMOS33,0,,,,IFD,,LOCATED,YES,NONE,
D12,nXBS<1>,IBUF,IP_L02P_0,INPUT,LVCMOS33,0,,,,IFD,,UNLOCATED,YES,NONE,
D13,,,VCCINT,,,,,,,,1.2,,,,
D14,TPA_DIO1_N,IBUF,IO_L18N_1/LDC0,INPUT,LVCMOS33,1,,,,NONE,,LOCATED,NO,NONE,
D15,TPA_DIO1_P,IBUF,IO_L18P_1/HDC,INPUT,LVCMOS33,1,,,,NONE,,LOCATED,NO,NONE,
D16,,IBUF,IP/VREF_1,UNUSED,,1,,,,,,,,,
E1,,DIFFS,IO_L05N_3,UNUSED,,3,,,,,,,,,
E2,,,VCCO_3,,,3,,,,,3.30,,,,
E3,TPA_FSIO6,IBUF,IO_L03P_3,INPUT,LVCMOS33,3,,,,NONE,,LOCATED,NO,NONE,
E4,,DIFFS,IO_L03N_3,UNUSED,,3,,,,,,,,,
E5,,,VCCINT,,,,,,,,1.2,,,,
E6,,DIFFSI,IP_L16N_0,UNUSED,,0,,,,,,,,,
E7,XDATA<1>,IOB,IO_L14P_0,BIDIR,LVCMOS33,0,12,FAST,NONE**,NONE,,LOCATED,NO,NONE,
E8,XDATA<10>,IOB,IO_L12P_0,BIDIR,LVCMOS33,0,12,FAST,NONE**,NONE,,LOCATED,NO,NONE,
E9,TPA_ABSENT,IBUF,IO_L08P_0/GCLK4,INPUT,LVCMOS33,0,,,,NONE,,LOCATED,NO,NONE,
E10,XADDRESS<2>,IBUF,IO_L06N_0,INPUT,LVCMOS33,0,,,,NONE,,LOCATED,NO,NONE,
E11,,DIFFS,IO_L04N_0,UNUSED,,0,,,,,,,,,
E12,,,VCCINT,,,,,,,,1.2,,,,
E13,,DIFFM,IO_L17P_1,UNUSED,,1,,,,,,,,,
E14,,IBUF,IP,UNUSED,,1,,,,,,,,,
E15,,,VCCO_1,,,1,,,,,3.30,,,,
E16,,DIFFS,IO_L17N_1,UNUSED,,1,,,,,,,,,
F1,,,VCCAUX,,,,,,,,2.5,,,,
F2,,IBUF,IP,UNUSED,,3,,,,,,,,,
F3,,DIFFM,IO_L04P_3,UNUSED,,3,,,,,,,,,
F4,XADDRESS<6>,IBUF,IO_L04N_3/VREF_3,INPUT,LVCMOS33,3,,,,NONE,,LOCATED,NO,NONE,
F5,XADDRESS<5>,IBUF,IO,INPUT,LVCMOS33,3,,,,NONE,,LOCATED,NO,NONE,
F6,,,GND,,,,,,,,,,,,
F7,,,VCCO_0,,,0,,,,,3.30,,,,
F8,XDATA<5>,IOB,IO_L12N_0,BIDIR,LVCMOS33,0,12,FAST,NONE**,NONE,,LOCATED,NO,NONE,
F9,TPA_FSIO4,IBUF,IO_L08N_0/GCLK5,INPUT,LVCMOS33,0,,,,NONE,,LOCATED,NO,NONE,
F10,,,VCCO_0,,,0,,,,,3.30,,,,
F11,,,GND,,,,,,,,,,,,
F12,TPA_DIO2_N,IBUF,IO_L16N_1,INPUT,LVCMOS33,1,,,,NONE,,LOCATED,NO,NONE,
F13,TPA_DIO2_P,IBUF,IO_L16P_1,INPUT,LVCMOS33,1,,,,NONE,,LOCATED,NO,NONE,
F14,TPA_DIO3_P,IBUF,IO_L15P_1,INPUT,LVCMOS33,1,,,,NONE,,LOCATED,NO,NONE,
F15,TPA_DIO3_N,IBUF,IO_L15N_1,INPUT,LVCMOS33,1,,,,NONE,,LOCATED,NO,NONE,
F16,,,VCCAUX,,,,,,,,2.5,,,,
G1,,IBUF,IP/VREF_3,UNUSED,,3,,,,,,,,,
G2,XDATA<11>,IOB,IO_L07N_3,BIDIR,LVCMOS33,3,12,FAST,NONE**,NONE,,LOCATED,NO,NONE,
G3,XDATA<14>,IOB,IO_L07P_3,BIDIR,LVCMOS33,3,12,FAST,NONE**,NONE,,LOCATED,NO,NONE,
G4,,DIFFS,IO_L06N_3,UNUSED,,3,,,,,,,,,
G5,XADDRESS<10>,IBUF,IO_L06P_3,INPUT,LVCMOS33,3,,,,IFD,,LOCATED,YES,NONE,
G6,,,VCCO_3,,,3,,,,,3.30,,,,
G7,,,GND,,,,,,,,,,,,
G8,,,GND,,,,,,,,,,,,
G9,,,GND,,,,,,,,,,,,
G10,,,GND,,,,,,,,,,,,
G11,,,VCCO_1,,,1,,,,,3.30,,,,
G12,,IBUF,IP,UNUSED,,1,,,,,,,,,
G13,,DIFFM,IO_L14P_1,UNUSED,,1,,,,,,,,,
G14,,DIFFS,IO_L14N_1/A0,UNUSED,,1,,,,,,,,,
G15,,DIFFM,IO_L13P_1/A2,UNUSED,,1,,,,,,,,,
G16,,DIFFS,IO_L13N_1/A1,UNUSED,,1,,,,,,,,,
H1,,IBUF,IP,UNUSED,,3,,,,,,,,,
H2,,,GND,,,,,,,,,,,,
H3,nXWE,IBUF,IO_L09P_3/LHCLK2,INPUT,LVCMOS33,3,,,,NONE,,LOCATED,NO,NONE,
H4,XDATA<0>,IOB,IO_L09N_3/LHCLK3/IRDY2,BIDIR,LVCMOS33,3,12,FAST,NONE**,NONE,,LOCATED,NO,NONE,
H5,,DIFFM,IO_L08P_3/LHCLK0,UNUSED,,3,,,,,,,,,
H6,XADDRESS<8>,IBUF,IO_L08N_3/LHCLK1,INPUT,LVCMOS33,3,,,,NONE,,LOCATED,NO,NONE,
H7,,,GND,,,,,,,,,,,,
H8,,,GND,,,,,,,,,,,,
H9,,,GND,,,,,,,,,,,,
H10,,,GND,,,,,,,,,,,,
H11,,DIFFS,IO_L12N_1/A3/RHCLK7,UNUSED,,1,,,,,,,,,
H12,,DIFFM,IO_L12P_1/A4/RHCLK6,UNUSED,,1,,,,,,,,,
H13,,IBUF,IP/VREF_1,UNUSED,,1,,,,,,,,,
H14,,DIFFS,IO_L11N_1/A5/RHCLK5,UNUSED,,1,,,,,,,,,
H15,,DIFFM,IO_L11P_1/A6/RHCLK4/IRDY1,UNUSED,,1,,,,,,,,,
H16,,IBUF,IP,UNUSED,,1,,,,,,,,,
J1,,DIFFM,IO_L12P_3,UNUSED,,3,,,,,,,,,
J2,PLLCLOCK,IBUF,IO_L10P_3/LHCLK4/TRDY2,INPUT,LVCMOS33,3,,,,NONE,,LOCATED,NO,NONE,
J3,XADDRESS<18>,IBUF,IO_L10N_3/LHCLK5,INPUT,LVCMOS33,3,,,,NONE,,LOCATED,NO,NONE,
J4,,DIFFS,IO_L11N_3/LHCLK7,UNUSED,,3,,,,,,,,,
J5,,DIFFM,IO_L11P_3/LHCLK6,UNUSED,,3,,,,,,,,,
J6,,IBUF,IP,UNUSED,,3,,,,,,,,,
J7,,,GND,,,,,,,,,,,,
J8,,,GND,,,,,,,,,,,,
J9,,,GND,,,,,,,,,,,,
J10,,,GND,,,,,,,,,,,,
J11,,IBUF,IP,UNUSED,,1,,,,,,,,,
J12,,IBUF,IP,UNUSED,,1,,,,,,,,,
J13,,DIFFS,IO_L10N_1/A7/RHCLK3/TRDY1,UNUSED,,1,,,,,,,,,
J14,,DIFFM,IO_L10P_1/A8/RHCLK2,UNUSED,,1,,,,,,,,,
J15,,,GND,,,,,,,,,,,,
J16,TPA_DIO7_N,IBUF,IO_L09N_1/A9/RHCLK1,INPUT,LVCMOS33,1,,,,NONE,,LOCATED,NO,NONE,
K1,,DIFFS,IO_L12N_3,UNUSED,,3,,,,,,,,,
K2,,DIFFM,IO_L13P_3,UNUSED,,3,,,,,,,,,
K3,,DIFFS,IO_L13N_3,UNUSED,,3,,,,,,,,,
K4,,IBUF,IP,UNUSED,,3,,,,,,,,,
K5,,DIFFM,IO_L15P_3,UNUSED,,3,,,,,,,,,
K6,,,VCCO_3,,,3,,,,,3.30,,,,
K7,,,GND,,,,,,,,,,,,
K8,,,GND,,,,,,,,,,,,
K9,,,GND,,,,,,,,,,,,
K10,,,GND,,,,,,,,,,,,
K11,,,VCCO_1,,,1,,,,,3.30,,,,
K12,TPA_DIO8_N,IBUF,IO_L07N_1/A11,INPUT,LVCMOS33,1,,,,NONE,,LOCATED,NO,NONE,
K13,TPA_DIO8_P,IBUF,IO_L07P_1/A12,INPUT,LVCMOS33,1,,,,NONE,,LOCATED,NO,NONE,
K14,TPA_DIO9_N,IBUF,IO_L08N_1/VREF_1,INPUT,LVCMOS33,1,,,,NONE,,LOCATED,NO,NONE,
K15,TPA_DIO9_P,IBUF,IO_L08P_1,INPUT,LVCMOS33,1,,,,NONE,,LOCATED,NO,NONE,
K16,TPA_DIO7_P,IBUF,IO_L09P_1/A10/RHCLK0,INPUT,LVCMOS33,1,,,,NONE,,LOCATED,NO,NONE,
L1,,,VCCAUX,,,,,,,,2.5,,,,
L2,,DIFFS,IO_L14N_3/VREF_3,UNUSED,,3,,,,,,,,,
L3,,DIFFM,IO_L14P_3,UNUSED,,3,,,,,,,,,
L4,,DIFFS,IO_L17N_3,UNUSED,,3,,,,,,,,,
L5,,DIFFS,IO_L15N_3,UNUSED,,3,,,,,,,,,
L6,,,GND,,,,,,,,,,,,
L7,,,VCCO_2,,,2,,,,,3.30,,,,
L8,nXCS,IBUF,IO_L09N_2/D6/GCLK13,INPUT,LVCMOS33,2,,,,NONE,,LOCATED,NO,NONE,
L9,,DIFFM,IO_L13P_2/M0,UNUSED,,2,,,,,,PROHIBITED,,,
L10,,,VCCO_2,,,2,,,,,3.30,,,,
L11,,,GND,,,,,,,,,,,,
L12,,DIFFM,IO_L05P_1,UNUSED,,1,,,,,,,,,
L13,,DIFFS,IO_L05N_1,UNUSED,,1,,,,,,,,,
L14,,DIFFM,IO_L06P_1,UNUSED,,1,,,,,,,,,
L15,,DIFFS,IO_L06N_1,UNUSED,,1,,,,,,,,,
L16,,,VCCAUX,,,,,,,,2.5,,,,
M1,,DIFFM,IO_L16P_3,UNUSED,,3,,,,,,,,,
M2,,,VCCO_3,,,3,,,,,3.30,,,,
M3,,IBUF,IP,UNUSED,,3,,,,,,,,,
M4,,DIFFM,IO_L17P_3,UNUSED,,3,,,,,,,,,
M5,,,VCCINT,,,,,,,,1.2,,,,
M6,XDATA<13>,IOB,IO_L05P_2,BIDIR,LVCMOS33,2,12,FAST,NONE**,NONE,,LOCATED,NO,NONE,
M7,XADDRESS<14>,IBUF,IP,INPUT,LVCMOS33,2,,,,NONE,,LOCATED,NO,NONE,
M8,XDATA<12>,IOB,IO_L09P_2/D7/GCLK12,BIDIR,LVCMOS33,2,12,FAST,NONE**,NONE,,LOCATED,NO,NONE,
M9,,DIFFS,IO_L13N_2/DIN/D0,UNUSED,,2,,,,,,PROHIBITED,,,
M10,,DIFFS,IO_L15N_2,UNUSED,,2,,,,,,,,,
M11,,DIFFSI,IP_L17N_2,UNUSED,,2,,,,,,,,,
M12,,,VCCINT,,,,,,,,1.2,,,,
M13,,IBUF,IP,UNUSED,,1,,,,,,,,,
M14,,IOB,IO,UNUSED,,1,,,,,,,,,
M15,,,VCCO_1,,,1,,,,,3.30,,,,
M16,TPA_DIO4_N,IBUF,IO_L04N_1/VREF_1,INPUT,LVCMOS33,1,,,,NONE,,LOCATED,NO,NONE,
N1,,DIFFS,IO_L16N_3,UNUSED,,3,,,,,,,,,
N2,DMA_TCOUT,IBUF,IO/VREF_3,INPUT,LVCMOS33,3,,,,NONE,,LOCATED,NO,NONE,
N3,,IBUF,IP,UNUSED,,3,,,,,,,,,
N4,,,VCCINT,,,,,,,,1.2,,,,
N5,,DIFFS,IO_L03N_2/MOSI/CSI_B,UNUSED,,2,,,,,,,,,
N6,XDATA<7>,IOB,IO_L05N_2,BIDIR,LVCMOS33,2,12,FAST,NONE**,NONE,,LOCATED,NO,NONE,
N7,,DIFFM,IO_L07P_2,UNUSED,,2,,,,,,,,,
N8,XDATA<8>,IOB,IO_L10P_2/D4/GCLK14,BIDIR,LVCMOS33,2,12,FAST,NONE**,NONE,,LOCATED,NO,NONE,
N9,PLLCLOCK3,IBUF,IO_L12N_2/D1/GCLK3,INPUT,LVCMOS33,2,,,,NONE,,LOCATED,NO,NONE,
N10,,DIFFM,IO_L15P_2,UNUSED,,2,,,,,,,,,
N11,,DIFFMI,IP_L17P_2,UNUSED,,2,,,,,,,,,
N12,,DIFFS,IO_L18N_2/A20,UNUSED,,2,,,,,,,,,
N13,,,VCCINT,,,,,,,,1.2,,,,
N14,,DIFFM,IO_L03P_1,UNUSED,,1,,,,,,,,,
N15,,DIFFS,IO_L03N_1/VREF_1,UNUSED,,1,,,,,,,,,
N16,TPA_DIO4_P,IBUF,IO_L04P_1,INPUT,LVCMOS33,1,,,,NONE,,LOCATED,NO,NONE,
P1,DMA_DREQCLR,IBUF,IO_L18N_3,INPUT,LVCMOS33,3,,,,NONE,,LOCATED,NO,NONE,
P2,,DIFFM,IO_L18P_3,UNUSED,,3,,,,,,,,,
P3,FPGA_IRQ,IOB,IO_L01P_2/CSO_B,OUTPUT,LVCMOS33,2,12,SLOW,NONE**,,,LOCATED,YES,NONE,
P4,,DIFFS,IO_L01N_2/INIT_B,UNUSED,,2,,,,,,PROHIBITED,,,
P5,,DIFFM,IO_L03P_2/DOUT/BUSY,UNUSED,,2,,,,,,PROHIBITED,,,
P6,XDATA<6>,IOB,IO_L06N_2,BIDIR,LVCMOS33,2,12,FAST,NONE**,NONE,,LOCATED,NO,NONE,
P7,TPA_FSIO2,IBUF,IO_L07N_2,INPUT,LVCMOS33,2,,,,NONE,,LOCATED,NO,NONE,
P8,,DIFFS,IO_L10N_2/D3/GCLK15,UNUSED,,2,,,,,,,,,
P9,TPA_FSIO5,IBUF,IO_L12P_2/D2/GCLK2,INPUT,LVCMOS33,2,,,,NONE,,LOCATED,NO,NONE,
P10,,DIFFM,IO_L14P_2,UNUSED,,2,,,,,,,,,
P11,,DIFFS,IO_L16N_2/A22,UNUSED,,2,,,,,,,,,
P12,,DIFFM,IO_L18P_2/A21,UNUSED,,2,,,,,,,,,
P13,,IOB,IO/VREF_2,UNUSED,,2,,,,,,,,,
P14,,DIFFM,IO_L20P_2/VS0/A17,UNUSED,,2,,,,,,,,,
P15,TPA_DIO5_N,IBUF,IO_L02N_1/A13,INPUT,LVCMOS33,1,,,,NONE,,LOCATED,NO,NONE,
P16,TPA_DIO5_P,IBUF,IO_L02P_1/A14,INPUT,LVCMOS33,1,,,,NONE,,LOCATED,NO,NONE,
R1,nXCS_FIFO,IBUF,IO_L19N_3,INPUT,LVCMOS25*,3,,,,NONE,,LOCATED,NO,NONE,
R2,,DIFFM,IO_L19P_3,UNUSED,,3,,,,,,,,,
R3,XADDRESS<4>,IBUF,IP_L02N_2,INPUT,LVCMOS33,2,,,,NONE,,LOCATED,NO,NONE,
R4,XADDRESS<15>,IBUF,IO/VREF_2,INPUT,LVCMOS33,2,,,,NONE,,LOCATED,NO,NONE,
R5,,,VCCO_2,,,2,,,,,3.30,,,,
R6,TPA_FSIO1,IBUF,IO_L06P_2,INPUT,LVCMOS33,2,,,,NONE,,LOCATED,NO,NONE,
R7,XADDRESS<17>,IBUF,IP_L08P_2,INPUT,LVCMOS33,2,,,,NONE,,LOCATED,NO,NONE,
R8,,,GND,,,,,,,,,,,,
R9,,DIFFSI,IP_L11N_2/M2/GCLK1,UNUSED,,2,,,,,,PROHIBITED,,,
R10,,DIFFS,IO_L14N_2/VREF_2,UNUSED,,2,,,,,,,,,
R11,,DIFFM,IO_L16P_2/A23,UNUSED,,2,,,,,,,,,
R12,,,VCCO_2,,,2,,,,,3.30,,,,
R13,,DIFFS,IO_L19N_2/VS1/A18,UNUSED,,2,,,,,,,,,
R14,,DIFFS,IO_L20N_2/CCLK,UNUSED,,2,,,,,,PROHIBITED,,,
R15,TPA_DIO6_N,IBUF,IO_L01N_1/A15,INPUT,LVCMOS33,1,,,,NONE,,LOCATED,NO,NONE,
R16,TPA_DIO6_P,IBUF,IO_L01P_1/A16,INPUT,LVCMOS33,1,,,,NONE,,LOCATED,NO,NONE,
T1,,,GND,,,,,,,,,,,,
T2,FPGA_INIT,IBUF,IP,INPUT,LVCMOS33,2,,,,NONE,,LOCATED,NO,NONE,
T3,XADDRESS<1>,IBUF,IP_L02P_2,INPUT,LVCMOS33,2,,,,NONE,,LOCATED,NO,NONE,
T4,,DIFFM,IO_L04P_2,UNUSED,,2,,,,,,,,,
T5,,DIFFS,IO_L04N_2,UNUSED,,2,,,,,,,,,
T6,,,VCCAUX,,,,,,,,2.5,,,,
T7,,DIFFSI,IP_L08N_2/VREF_2,UNUSED,,2,,,,,,,,,
T8,TPA_FSIO9,IBUF,IO/D5,INPUT,LVCMOS33,2,,,,NONE,,LOCATED,NO,NONE,
T9,PLLCLOCK2,IBUF,IP_L11P_2/RDWR_B/GCLK0,INPUT,LVCMOS33,2,,,,NONE,,LOCATED,NO,NONE,
T10,,IOB,IO/M1,UNUSED,,2,,,,,,PROHIBITED,,,
T11,,,VCCAUX,,,,,,,,2.5,,,,
T12,,IBUF,IP,UNUSED,,2,,,,,,,,,
T13,,DIFFM,IO_L19P_2/VS2/A19,UNUSED,,2,,,,,,,,,
T14,,IBUF,IP,UNUSED,,2,,,,,,,,,
T15,,,DONE,,,,,,,,,,,,
T16,,,GND,,,,,,,,,,,,

# -----,-----,-----,-----,-----,-----,-----,-----,-----,-----,-----,-----,-----,-----,-----,
# 
#* Default value.
#** This default Pullup/Pulldown value can be overridden in Bitgen. 
#****** Special VCCO requirements may apply. Please consult the device 
#       family datasheet for specific guideline on VCCO requirements. 
#
#
#